<svg className="bftm" width="100%" height="100%" viewBox="0 0 683 99" fill="none" xmlns="http://www.w3.org/2000/svg">
<path className="bftm__top-right" d="M658.706 0.570267C656.628 1.23919 653.218 2.92389 651.833 3.93966C651.3 4.33606 650.528 5.10408 650.101 5.64913L649.356 6.6649H342.293V8.00275C342.293 8.72122 342.213 9.68744 342.133 10.1086L341.973 10.8766H649.569L650.767 12.264C652.046 13.7753 653.644 14.9397 655.695 15.906C656.974 16.5006 659.052 17.1447 659.212 16.9713C659.265 16.9465 658.812 16.3024 658.2 15.5591C657.081 14.1717 656.095 12.5613 656.095 12.1402C656.095 11.9667 656.335 11.9667 656.788 12.1154C657.827 12.487 658.812 12.4127 659.771 11.8676C660.251 11.5951 660.704 11.3721 660.81 11.3721C660.89 11.3721 660.89 12.2145 660.81 13.255C660.704 14.6672 660.73 15.0636 660.97 14.8902C663.9 12.7595 667.496 11.0748 670.347 10.505C671.386 10.3068 674.635 9.91042 677.619 9.58834C682.334 9.11762 683 8.99375 683 8.62212C683 8.12662 683.053 8.12662 676.127 7.53202C668.056 6.83833 663.367 5.25273 661.982 2.75046L661.476 1.83379L661.263 2.82479C661.156 3.36984 661.076 4.28651 661.076 4.85633C661.103 5.8721 660.863 6.21895 660.49 5.6739C660.171 5.20318 657.827 5.40138 657.054 5.94643C656.654 6.24373 656.282 6.44193 656.228 6.39238C656.015 6.1694 657.267 4.26173 658.999 2.20541C660.038 0.991441 660.81 -0.0243311 660.704 0.000443841C660.57 0.000443841 659.691 0.272968 658.706 0.570267Z" fill="#E7C4AE"/>
<path className="bftm__top-left" d="M25.2944 0.570267C27.3722 1.23919 30.7819 2.92389 32.1671 3.93966C32.6999 4.33606 33.4724 5.10408 33.8986 5.64913L34.6445 6.6649H341.707V8.00275C341.707 8.72122 341.787 9.68744 341.867 10.1086L342.027 10.8766H34.4314L33.2327 12.264C31.954 13.7753 30.3557 14.9397 28.3045 15.906C27.0259 16.5006 24.9481 17.1447 24.7882 16.9713C24.735 16.9465 25.1878 16.3024 25.8005 15.5591C26.9193 14.1717 27.9049 12.5613 27.9049 12.1402C27.9049 11.9667 27.6652 11.9667 27.2123 12.1154C26.1734 12.487 25.1878 12.4127 24.2288 11.8676C23.7493 11.5951 23.2965 11.3721 23.1899 11.3721C23.11 11.3721 23.11 12.2145 23.1899 13.255C23.2965 14.6672 23.2698 15.0636 23.0301 14.8902C20.0998 12.7595 16.5036 11.0748 13.6533 10.505C12.6144 10.3068 9.36452 9.91042 6.381 9.58834C1.66598 9.11762 1.00001 8.99375 1.00001 8.62212C1.00001 8.12662 0.946735 8.12662 7.87276 7.53202C15.9442 6.83833 20.6326 5.25273 22.0178 2.75046L22.524 1.83379L22.7371 2.82479C22.8436 3.36984 22.9235 4.28651 22.9235 4.85633C22.8969 5.8721 23.1366 6.21895 23.5096 5.6739C23.8292 5.20318 26.1734 5.40138 26.946 5.94643C27.3455 6.24373 27.7185 6.44193 27.7718 6.39238C27.9849 6.1694 26.7328 4.26173 25.0013 2.20541C23.9624 0.991441 23.1899 -0.0243311 23.2965 0.000443841C23.4297 0.000443841 24.3087 0.272968 25.2944 0.570267Z" fill="#E7C4AE"/>
<path className="bftm__bottom-right" d="M658.706 82.5703C656.628 83.2392 653.218 84.9239 651.833 85.9397C651.3 86.3361 650.528 87.1041 650.101 87.6491L649.356 88.6649H342.293V90.0027C342.293 90.7212 342.213 91.6874 342.133 92.1086L341.973 92.8766H649.569L650.767 94.264C652.046 95.7753 653.644 96.9397 655.695 97.906C656.974 98.5006 659.052 99.1447 659.212 98.9713C659.265 98.9465 658.812 98.3024 658.2 97.5591C657.081 96.1717 656.095 94.5613 656.095 94.1402C656.095 93.9667 656.335 93.9667 656.788 94.1154C657.827 94.487 658.812 94.4127 659.771 93.8676C660.251 93.5951 660.704 93.3721 660.81 93.3721C660.89 93.3721 660.89 94.2145 660.81 95.255C660.704 96.6672 660.73 97.0636 660.97 96.8902C663.9 94.7595 667.496 93.0748 670.347 92.505C671.386 92.3068 674.635 91.9104 677.619 91.5883C682.334 91.1176 683 90.9937 683 90.6221C683 90.1266 683.053 90.1266 676.127 89.532C668.056 88.8383 663.367 87.2527 661.982 84.7505L661.476 83.8338L661.263 84.8248C661.156 85.3698 661.076 86.2865 661.076 86.8563C661.103 87.8721 660.863 88.219 660.49 87.6739C660.171 87.2032 657.827 87.4014 657.054 87.9464C656.654 88.2437 656.282 88.4419 656.228 88.3924C656.015 88.1694 657.267 86.2617 658.999 84.2054C660.038 82.9914 660.81 81.9757 660.704 82.0004C660.57 82.0004 659.691 82.273 658.706 82.5703Z" fill="#E7C4AE"/>
<path className="bftm__top-left" d="M25.2944 82.5703C27.3722 83.2392 30.7819 84.9239 32.1671 85.9397C32.6999 86.3361 33.4724 87.1041 33.8986 87.6491L34.6445 88.6649H341.707V90.0027C341.707 90.7212 341.787 91.6874 341.867 92.1086L342.027 92.8766H34.4314L33.2327 94.264C31.954 95.7753 30.3557 96.9397 28.3045 97.906C27.0259 98.5006 24.9481 99.1447 24.7882 98.9713C24.735 98.9465 25.1878 98.3024 25.8005 97.5591C26.9193 96.1717 27.9049 94.5613 27.9049 94.1402C27.9049 93.9667 27.6652 93.9667 27.2123 94.1154C26.1734 94.487 25.1878 94.4127 24.2288 93.8676C23.7493 93.5951 23.2965 93.3721 23.1899 93.3721C23.11 93.3721 23.11 94.2145 23.1899 95.255C23.2965 96.6672 23.2698 97.0636 23.0301 96.8902C20.0998 94.7595 16.5036 93.0748 13.6533 92.505C12.6144 92.3068 9.36452 91.9104 6.381 91.5883C1.66598 91.1176 1.00001 90.9937 1.00001 90.6221C1.00001 90.1266 0.946735 90.1266 7.87276 89.532C15.9442 88.8383 20.6326 87.2527 22.0178 84.7505L22.524 83.8338L22.7371 84.8248C22.8436 85.3698 22.9235 86.2865 22.9235 86.8563C22.8969 87.8721 23.1366 88.219 23.5096 87.6739C23.8292 87.2032 26.1734 87.4014 26.946 87.9464C27.3455 88.2437 27.7185 88.4419 27.7718 88.3924C27.9849 88.1694 26.7328 86.2617 25.0013 84.2054C23.9624 82.9914 23.1899 81.9757 23.2965 82.0004C23.4297 82.0004 24.3087 82.273 25.2944 82.5703Z" fill="#E7C4AE"/>
<path className="bftm__letters" d="M24.1875 58.25C24.3125 60.4375 23.9062 62.5625 23 64.5938C22.1875 65.4375 21.5 66.0938 20.875 66.5625C19.9688 67.3125 18.8438 67.7188 17.4688 67.7188C16.2188 67.7188 15 67.6875 13.8125 67.6875C13.1875 67.1875 12.875 66.8438 12.8438 66.5938C12.3125 64.0938 12.0312 61.9688 12 60.1562C12 60.0938 11.9688 59.2812 11.9062 57.7188C11.8438 56.5625 11.8125 55.4688 11.8438 54.4375C11.9688 52.9375 12.0938 51.6875 12.2188 50.625C12.7188 50.4062 13.375 50.2812 14.1562 50.2188C15.9688 50.1562 17.3125 50.2188 18.2188 50.4688C19.4375 50.7812 20.5938 51.5 21.6562 52.625C22.0625 53.3125 22.375 53.875 22.5938 54.3125C23.625 56.6875 24.1562 58 24.1875 58.25ZM25.4062 39.4062C23.9688 39.6562 22.75 39.7812 21.8125 39.8125C21.6875 39.875 21.5938 39.9688 21.5312 40.0625C21.5312 40.4375 21.5625 40.8125 21.5625 41.1875C21.5625 44.4688 20.5625 46.4375 18.5938 47.0938C17.75 47.4062 16.0312 47.5938 13.4688 47.6875C13.4062 47.7188 13.0312 47.5938 12.3438 47.3438C12.1562 45.8438 12.125 44.5938 12.25 43.625C12.4375 42.0938 12.5312 41.3125 12.5312 41.25C12.5312 41.25 12.4688 41.1562 12.375 41C12.25 40.875 12.2188 40.75 12.25 40.6562C12.4688 37.5938 12.625 35.3125 12.7188 33.7812C13.1562 33.375 14.4688 33.3125 16.6875 33.625C17.1562 33.6875 17.75 33.9688 18.4375 34.4375C19.125 34.9375 19.5625 35.375 19.7812 35.75C20 36.3438 20.25 36.9375 20.5 37.5312C20.7812 38.2812 21.1562 38.7812 21.5938 39.0312C23.1875 39.375 24.4688 39.5 25.4062 39.4062ZM30.7188 55.5C30.3438 53.5 29.5312 51.875 28.25 50.5938C26.4375 48.8438 24.7812 48 23.25 48.0625C23.125 48 23.0625 47.9375 23.0312 47.9062C25.7812 45.5 27.1875 42.7188 27.1875 39.5938C27.1875 38.9688 27.125 38.3438 27.0312 37.6562C26.8438 36.5312 26.25 35.3125 25.1875 34.0625C24.125 32.8125 23 32.0312 21.8125 31.7188C19.5312 31.1875 18.3438 30.9062 18.2188 30.875C16.7812 30.7188 15.625 30.6875 14.7188 30.8125C13.4062 31 12.5 31.0625 12.0312 31.0625H8.34375C8.28125 31.0625 7.4375 31.1562 5.78125 31.2812C3.9375 31.4688 2.59375 31.5625 1.78125 31.5938C1.5 31.625 1.34375 31.7188 1.25 31.875C1.25 32.0312 1.28125 32.375 1.28125 32.8438C1.84375 32.9688 2.4375 33.0938 3.0625 33.2188C3.78125 33.4062 4.375 33.75 4.8125 34.25C5.125 35.3438 5.3125 36.2188 5.34375 36.8438C5.65625 38.9062 5.8125 40.1562 5.75 40.5312C5.5 41.8125 5.46875 42.8438 5.6875 43.6562C5.75 43.7812 5.8125 43.8438 5.875 43.875C5.6875 46.8125 5.59375 48.1562 5.5625 47.9062C5.625 48.5 5.65625 48.8125 5.65625 48.875V51.9375C5.65625 52.625 5.6875 53.1562 5.8125 53.5312C6.03125 53.9375 6.21875 54.2188 6.375 54.3438C6.03125 54.8438 5.84375 55.2188 5.8125 55.4375C5.75 55.6875 5.75 57.1875 5.75 59.9375C5.75 60.4375 5.6875 61.125 5.5625 62.0625C5.40625 63.125 5.34375 63.75 5.34375 63.9688C5.25 65.5 5.09375 66.4375 4.90625 66.8125C4.4375 67.625 3.84375 68.2188 3.09375 68.5625C2.84375 68.6875 2.21875 68.9062 1.15625 69.1875C1.15625 69.2812 1.15625 69.4062 1.21875 69.5938C1.28125 69.7812 1.3125 69.875 1.3125 69.9375C1.71875 70.125 2.09375 70.2188 2.40625 70.2188H15.7188C18.2812 70.2188 19.8438 70.1875 20.375 70.0625C21.75 69.8125 23.1875 69.3125 24.6562 68.625C25.5625 68.2188 26.6875 67.2188 28 65.625C29.3438 63.9688 30.0938 62.625 30.25 61.5938C30.6875 58.3438 30.8438 56.3125 30.7188 55.5ZM1.25 31.875C1.21875 31.9375 1.1875 32.0312 1.1875 32.0938C1.21875 31.7188 1.21875 31.6562 1.25 31.875ZM68.75 51.3438C68.7812 51.8438 68.7188 52.7188 68.5938 54C68.4062 55.625 68.3125 56.6562 68.2812 57.125C68.1562 57.4062 68.0312 57.5938 67.9062 57.7188C67.8125 58.2812 67.75 58.75 67.7188 59.125C67.4062 59.5938 67.1562 59.9375 66.9688 60.1875C66.5625 62.0938 65.3125 63.6875 63.25 64.9688C62.75 65.3438 62.375 65.6875 62.0938 65.9375C60.7812 66.5 59.8125 66.8438 59.125 66.9688C58.5625 67.1562 58.125 67.2812 57.8125 67.375C53.75 67.75 50.9688 67.4688 49.4375 66.5312C48.875 66.2188 48.0938 65.5625 47.0938 64.625C46.4688 64.5312 46.0938 64.4688 46.0312 64.4375C45.7812 63.625 45.625 63.1875 45.625 63.1562C44.5312 62.1875 43.6875 61.1562 43.0625 60.0625C43 60.0312 42.5625 59.125 41.6875 57.375C41.5625 56.9375 41.5 56.5938 41.5 56.3125C41.2188 55.8125 41 55.4375 40.875 55.125C40.875 54.9062 40.9375 54.7188 41 54.5312C40.4375 52.1562 40.0312 50.2812 39.75 48.9062C39.7188 48.8438 39.75 48.6875 39.8438 48.4688C39.9062 48.2812 39.9688 48.125 39.9688 48.0625C40 46.875 40 46 40 45.4062C40.375 43.875 40.6875 42.7188 40.875 41.9375C41.2188 41.25 41.5625 40.6562 41.875 40.1562C42.0625 39.7188 42.1875 39.3438 42.2812 39.0938C42.9062 38.1875 43.4062 37.4688 43.8438 36.9062C44.0312 36.8438 44.2188 36.7812 44.4062 36.7188C44.6562 36.4375 44.8438 36.1875 44.9688 35.9688C46.7188 34.9375 47.6562 34.375 47.8125 34.3125C48.9688 33.8125 50.375 33.4375 52.0625 33.2188C52.9062 33.0938 54.4688 33.2188 56.7812 33.5938C59.1875 34 61.4062 35.3125 63.4688 37.5625C64.9062 39.1875 66.1562 41.375 67.2188 44.1562C68.0312 46.3438 68.5625 48.7188 68.75 51.3438ZM75.6875 50.5312C75.6875 50.375 75.625 50.1562 75.5312 49.8438C75.4375 49.5312 75.4062 49.3438 75.4062 49.25C75.3438 46.8125 75.0625 44.9375 74.625 43.6875C74.375 43.25 74.1562 42.9062 74 42.6562C73.625 41.2812 72.875 39.7812 71.6875 38.1562C70.3438 36.3438 68.875 34.9375 67.25 33.875C66.125 33.1875 65.2812 32.6562 64.7812 32.3125C62.2812 31.375 60.6875 30.7812 59.9688 30.5625C58.5938 30.2188 56.9688 30.0312 55.0938 30.0312H52.6562C51.7188 30.0312 50 30.3438 47.4688 30.9062C46.4688 31.1562 45.625 31.4062 45 31.7188C42.4688 33.0312 40.5938 34 39.3438 34.6562C38.7188 35.2812 38.3125 35.8125 38.1562 36.25C37.6562 36.5312 37.25 36.7188 37 36.7812C37.0938 37.3438 37.0938 37.75 37 38.0312C36.6875 37.875 36.4688 37.8438 36.375 37.9375C36.375 38.25 36.3125 38.5312 36.2188 38.75C35.4688 40.1562 34.8438 41.2188 34.4062 41.9375C34.0938 43.125 33.875 44.0312 33.75 44.6562C33.5312 45.1562 33.375 45.5625 33.25 45.8125C32.9375 47.9375 32.8438 50.125 33 52.3125C33.0625 53.625 33.4688 55.2188 34.1875 57.0938C34.9375 59.1562 35.7812 60.8125 36.7812 62.0938C38.5312 64.4062 40.4062 66.2188 42.4062 67.4688C44.0625 68.3438 45.3125 68.9375 46.1562 69.25C46.6562 69.4062 47.0312 69.5 47.3438 69.5625C48.4688 70.125 50.1562 70.4375 52.4062 70.5C52.5938 70.625 52.6875 70.6875 52.6562 70.6875H56.7812C59.8438 70.4375 63.0938 69.4062 66.5312 67.5938C67.2188 67.125 67.6875 66.75 67.9688 66.5C68.25 66.375 68.5 66.25 68.6875 66.1875C69.9062 64.9375 70.8125 64 71.4375 63.375C72.1875 62.2188 72.625 61.3125 72.8125 60.6875C73.4375 59.75 73.9375 59.0938 74.2812 58.6562C74.6562 57.5312 74.875 56.4688 74.9375 55.4688C75.1562 54.4688 75.375 53.75 75.5938 53.25C75.6562 52.625 75.6875 51.7188 75.6875 50.5312ZM113.812 51.3438C113.844 51.8438 113.781 52.7188 113.656 54C113.469 55.625 113.375 56.6562 113.344 57.125C113.219 57.4062 113.094 57.5938 112.969 57.7188C112.875 58.2812 112.812 58.75 112.781 59.125C112.469 59.5938 112.219 59.9375 112.031 60.1875C111.625 62.0938 110.375 63.6875 108.312 64.9688C107.812 65.3438 107.438 65.6875 107.156 65.9375C105.844 66.5 104.875 66.8438 104.188 66.9688C103.625 67.1562 103.188 67.2812 102.875 67.375C98.8125 67.75 96.0312 67.4688 94.5 66.5312C93.9375 66.2188 93.1562 65.5625 92.1562 64.625C91.5312 64.5312 91.1562 64.4688 91.0938 64.4375C90.8438 63.625 90.6875 63.1875 90.6875 63.1562C89.5938 62.1875 88.75 61.1562 88.125 60.0625C88.0625 60.0312 87.625 59.125 86.75 57.375C86.625 56.9375 86.5625 56.5938 86.5625 56.3125C86.2812 55.8125 86.0625 55.4375 85.9375 55.125C85.9375 54.9062 86 54.7188 86.0625 54.5312C85.5 52.1562 85.0938 50.2812 84.8125 48.9062C84.7812 48.8438 84.8125 48.6875 84.9062 48.4688C84.9688 48.2812 85.0312 48.125 85.0312 48.0625C85.0625 46.875 85.0625 46 85.0625 45.4062C85.4375 43.875 85.75 42.7188 85.9375 41.9375C86.2812 41.25 86.625 40.6562 86.9375 40.1562C87.125 39.7188 87.25 39.3438 87.3438 39.0938C87.9688 38.1875 88.4688 37.4688 88.9062 36.9062C89.0938 36.8438 89.2812 36.7812 89.4688 36.7188C89.7188 36.4375 89.9062 36.1875 90.0312 35.9688C91.7812 34.9375 92.7188 34.375 92.875 34.3125C94.0312 33.8125 95.4375 33.4375 97.125 33.2188C97.9688 33.0938 99.5312 33.2188 101.844 33.5938C104.25 34 106.469 35.3125 108.531 37.5625C109.969 39.1875 111.219 41.375 112.281 44.1562C113.094 46.3438 113.625 48.7188 113.812 51.3438ZM120.75 50.5312C120.75 50.375 120.688 50.1562 120.594 49.8438C120.5 49.5312 120.469 49.3438 120.469 49.25C120.406 46.8125 120.125 44.9375 119.688 43.6875C119.438 43.25 119.219 42.9062 119.062 42.6562C118.688 41.2812 117.938 39.7812 116.75 38.1562C115.406 36.3438 113.938 34.9375 112.312 33.875C111.188 33.1875 110.344 32.6562 109.844 32.3125C107.344 31.375 105.75 30.7812 105.031 30.5625C103.656 30.2188 102.031 30.0312 100.156 30.0312H97.7188C96.7812 30.0312 95.0625 30.3438 92.5312 30.9062C91.5312 31.1562 90.6875 31.4062 90.0625 31.7188C87.5312 33.0312 85.6562 34 84.4062 34.6562C83.7812 35.2812 83.375 35.8125 83.2188 36.25C82.7188 36.5312 82.3125 36.7188 82.0625 36.7812C82.1562 37.3438 82.1562 37.75 82.0625 38.0312C81.75 37.875 81.5312 37.8438 81.4375 37.9375C81.4375 38.25 81.375 38.5312 81.2812 38.75C80.5312 40.1562 79.9062 41.2188 79.4688 41.9375C79.1562 43.125 78.9375 44.0312 78.8125 44.6562C78.5938 45.1562 78.4375 45.5625 78.3125 45.8125C78 47.9375 77.9062 50.125 78.0625 52.3125C78.125 53.625 78.5312 55.2188 79.25 57.0938C80 59.1562 80.8438 60.8125 81.8438 62.0938C83.5938 64.4062 85.4688 66.2188 87.4688 67.4688C89.125 68.3438 90.375 68.9375 91.2188 69.25C91.7188 69.4062 92.0938 69.5 92.4062 69.5625C93.5312 70.125 95.2188 70.4375 97.4688 70.5C97.6562 70.625 97.75 70.6875 97.7188 70.6875H101.844C104.906 70.4375 108.156 69.4062 111.594 67.5938C112.281 67.125 112.75 66.75 113.031 66.5C113.312 66.375 113.562 66.25 113.75 66.1875C114.969 64.9375 115.875 64 116.5 63.375C117.25 62.2188 117.688 61.3125 117.875 60.6875C118.5 59.75 119 59.0938 119.344 58.6562C119.719 57.5312 119.938 56.4688 120 55.4688C120.219 54.4688 120.438 53.75 120.656 53.25C120.719 52.625 120.75 51.7188 120.75 50.5312ZM163.094 70.2188C163.094 69.6875 162.969 69.25 162.75 68.9375C162.25 68.9375 161.875 68.9062 161.625 68.875C160.594 68.4375 159.844 68.125 159.406 67.9062C159.188 67.7188 159.031 67.5938 158.969 67.4688C157.562 66.3438 156.5 65.375 155.812 64.5625C153.969 63.0625 152.969 62.2188 152.844 62.0625C152.469 61.5625 152.156 61.1875 151.969 60.875C151.438 60.5938 151.031 60.375 150.781 60.2188C150.312 59.9062 149.875 59.5 149.5 59.0625C148.312 57.7812 147.5 56.9688 147 56.5938C146.344 56.1875 145.875 55.875 145.562 55.6875C144.125 54.375 143.031 53.3438 142.344 52.625C142.219 52.4375 142.125 52.25 142.125 52.125C141.094 51.0625 140.062 50.0625 139.062 49.1562C138.75 48.9688 138.5 48.8125 138.312 48.7188C139 47.9688 139.531 47.4375 139.906 47.0625C140.375 46.4375 140.719 45.9375 140.938 45.625C143.094 43.375 144.375 42.0625 144.781 41.7188C145.031 41.5938 145.219 41.4688 145.406 41.4062C148.031 38.5938 150.094 36.375 151.562 34.7812C151.844 34.5938 152.062 34.4688 152.219 34.375C153.094 33.5938 153.719 33.0312 154.094 32.6562C155.281 32.0312 156.531 31.7812 157.906 31.9062C158 31.5 158.062 31.0625 158.062 30.5938C155.312 30.75 153.188 30.8438 151.688 30.9062C151.688 30.9062 151.312 30.8438 150.5 30.75C150.125 30.8125 149.875 30.8438 149.719 30.9062C147.219 30.5938 145.5 30.5938 144.562 30.8438C144.562 31.4062 144.594 31.7188 144.688 31.7812C145.219 31.875 145.75 31.9375 146.312 32C146.969 32.125 147.5 32.4062 147.938 32.875C148.344 33.3438 148.406 33.875 148.125 34.4375C147.688 35.2812 147.312 35.9375 147 36.4062C146.406 37.1562 145.969 37.6562 145.719 37.9375C144.75 39.0625 143.469 40.375 141.844 41.9375C141.406 42.2812 141.062 42.5 140.875 42.625C140.125 43.5 138.688 45 136.625 47.0938C136 47.7812 135.562 48.2812 135.25 48.5938C134.75 48.9688 134.5 49.1875 134.438 49.2188C134.25 48.0312 134.219 47.125 134.344 46.5C134.125 45.25 134.031 44.5938 134.031 44.5625C134.094 43.7812 134.156 43.1562 134.25 42.6562C134.125 42.25 134.094 41.875 134.156 41.5625C134.156 41.5 134.188 41.4062 134.281 41.25C134.375 41.125 134.438 41.0312 134.438 40.9688C134.438 40.7188 134.375 40.3438 134.25 39.9062C134.156 39.5312 134.125 39.2812 134.156 39.1562C134.406 37.5312 134.625 36.3125 134.781 35.5C134.906 34.4375 135 33.875 135.062 33.7812C135.5 33.0625 136.094 32.5625 136.906 32.2812L138.719 31.9062V31.5938C138.719 31.4375 138.75 31.3438 138.75 31.3125C138.75 31.125 138.656 30.9062 138.531 30.6875C137.938 30.75 136.406 30.7812 133.906 30.7812C133.594 30.7812 133.219 30.8438 132.812 30.9062C132.406 30.9688 132.188 31 132.188 31H129.719L124.75 30.7188C123.812 30.6875 123.375 30.9375 123.375 31.5C123.375 31.5938 123.375 31.6875 123.438 31.8125C124.875 32 125.906 32.25 126.531 32.5312C126.969 32.75 127.312 33.3125 127.625 34.1875C127.844 34.9062 127.969 35.5 127.969 36V40.25C127.969 40.3438 127.875 40.5 127.75 40.6562C127.75 40.6875 127.781 40.7812 127.781 40.875V43.25L128.031 43.5938C128.188 43.8125 128.219 44.125 128.094 44.5312C127.719 45.9688 127.688 47.0938 127.938 47.9688C127.875 47.8438 127.875 48.4688 127.875 49.7812V52.8438C127.875 53.25 127.969 53.5938 128.219 53.875C128.406 54.0938 128.5 54.2188 128.531 54.2188C128.062 54.9375 127.812 55.4375 127.812 55.6562C127.812 57.5938 127.875 59.0625 127.938 60.0312C127.781 61.9375 127.656 63.3438 127.562 64.2812C127.406 65.6875 127.25 66.5312 127.094 66.8438C126.656 67.625 126.156 68.1562 125.594 68.4375C125.344 68.5625 124.875 68.6875 124.188 68.7812C123.656 68.875 123.344 69 123.281 69.1562C123.25 69.25 123.25 69.3438 123.25 69.4062C123.25 69.7812 123.5 70.0312 124 70.1562C124.438 70.2812 124.812 70.2812 125.188 70.1562H129.188L130.625 70C131.562 69.9375 132.25 69.9062 132.719 69.9375C132.875 69.9375 133.219 70 133.75 70.0938C134.25 70.2188 134.531 70.25 134.594 70.25H137.406C138.344 70.125 139 70.0625 139.406 70.0312C139.531 69.9375 139.562 69.625 139.562 69.0625C138.781 68.75 138.156 68.5625 137.688 68.5C136.562 68.3125 135.688 67.6562 135.062 66.5938C134.938 66.0312 134.906 65.5625 134.938 65.2188C134.75 64.4688 134.625 63.875 134.531 63.4375C134.375 62.1875 134.281 61.25 134.219 60.625C134.25 59.25 134.281 58.1875 134.344 57.4688C134.219 56.25 134.156 55.3438 134.094 54.7188C134 53.625 134.094 53 134.344 52.8125C135 53.2812 135.5 53.6562 135.844 53.9688C136.406 54.4688 136.875 54.8125 137.188 55C137.688 55.6875 138.062 56.1562 138.25 56.4375C138.75 56.75 139.125 56.9375 139.438 57C139.625 57.25 139.781 57.4375 139.875 57.5625C140.312 57.8125 140.656 58 140.906 58.0938C141 57.9062 141.062 57.7188 141.125 57.5312C140.875 57.4688 140.781 57.375 140.781 57.2188C141.031 57.2188 141.25 57.3438 141.469 57.625C141.656 57.9062 141.812 58.0625 141.938 58.0938C142.719 58.3438 143.219 58.6562 143.438 59.0625C142.938 58.9375 142.656 58.875 142.656 58.8438L141.938 58.5938L141.469 58.7188C142.219 59.375 142.844 59.875 143.375 60.1875C144.156 60.9688 144.75 61.5625 145.156 62C147.094 63.6562 148.594 65 149.688 66C150.125 66.4375 150.375 66.75 150.406 66.9062C150.969 67.5 151.406 67.9062 151.719 68.1562C151.75 68.2812 151.781 68.4062 151.781 68.5C151.781 68.8125 151.312 69.0312 150.406 69.0938C150.188 69.4062 150.219 69.7812 150.469 70.2188L155.344 70.125H158.281L163.094 70.2188ZM127.75 40.6562L127.719 40.6875C127.719 40.5938 127.75 40.5938 127.75 40.6562ZM193.219 60.2188C193.219 58.9062 193.062 57.625 192.812 56.3438C192.562 55.2812 192.125 54.3125 191.5 53.5C190.375 52.125 189.594 51.4062 189.219 51.3125C187 49.5312 185.406 48.5938 184.469 48.4688C184.469 48.375 183.688 48.0312 182.156 47.4375C179.469 46.4375 177.312 45.125 175.75 43.5312C175.281 43.0938 174.906 42.75 174.625 42.5C173.969 41.125 173.656 39.9688 173.656 38.9688C173.656 38.375 173.812 37.8125 174.156 37.2812C174.5 36.75 174.844 36.2812 175.219 35.9062C175.875 35.0312 176.156 34.3438 176.062 33.8438C176.25 34.4375 176.312 34.8125 176.312 34.9375C176.375 34.8438 176.656 34.7188 177.125 34.5625C178.375 34.1562 179.219 33.9375 179.688 33.9375C182.344 33.9375 184.219 34.125 185.281 34.5C187.312 35.25 188.656 36.8438 189.312 39.2812C189.5 40.5312 189.656 41.4688 189.719 42.125H190.438C190.531 42.125 190.625 42.0938 190.75 42C190.875 41.9375 190.938 41.875 190.969 41.875C190.969 41.5625 190.969 41.0625 191.031 40.375C191.062 39.6875 191.094 39.3438 191.094 39.2812V36.5625L191.312 34.125L191.156 32.6875L191.5 31.875L191.562 31.4062C191.594 30.9062 191.312 30.6562 190.688 30.6562C190.562 30.6562 190.094 30.7188 189.25 30.8438C188.406 30.9688 187.938 31 187.875 31C187.75 31 186.719 30.9062 184.719 30.6562C182.719 30.4375 181.656 30.3125 181.562 30.3125C179.344 30.3125 177.594 30.5 176.281 30.8125C175.906 30.9062 175.75 30.9688 175.75 30.9688C175.719 30.9688 175.625 31.2188 175.438 31.7188C175.438 31.2188 175.094 31.0625 174.438 31.3125C174.312 31.2812 174.219 31.3125 174.094 31.4688C174.062 31.4688 173.625 31.7812 172.812 32.4062C172.188 32.5938 171.594 32.75 171 32.9375L170.75 33.9375L169.969 34.875C168.906 35.9375 168.344 36.5312 168.312 36.6562C168.094 37.3438 167.938 37.9688 167.875 38.5312C167.469 39.4688 167.25 39.9375 167.219 40C167.25 40.0312 167.344 40.3125 167.562 40.7812C167.562 40.875 167.5 41.0312 167.375 41.2188C167.438 42 167.469 42.5938 167.469 43.0312C167.688 43.5312 167.875 43.875 168 44.0625C168.031 44.6562 168.062 45.0938 168.062 45.375C168.125 45.4688 168.656 46.125 169.625 47.3125C170.281 48.1562 170.938 48.8438 171.562 49.3438C171.875 49.4688 172.125 49.5938 172.281 49.6562C175.344 51.4062 177 52.3438 177.312 52.4688C177.656 52.625 178.312 53 179.312 53.5625C181 54.125 182.75 55.1562 184.562 56.5938C184.969 56.9375 185.312 57.1875 185.562 57.3125C186.312 58.4688 186.719 59.2188 186.844 59.5312C187.031 60.0938 187.125 60.75 187.125 61.5C187.125 61.625 187 61.8438 186.812 62.2188C186.562 62.6562 186.438 62.9375 186.438 63C186.406 63.4375 186.375 63.6562 186.375 63.6875C186.094 64.25 185.875 64.625 185.75 64.875C185.125 65.9375 184.656 66.5 184.344 66.5625C183.656 66.75 182.781 66.9062 181.781 67.0938C181.594 67.1562 181.344 67.2812 181.031 67.5312C180.719 67.7812 180.5 67.875 180.438 67.875C180.344 67.875 179.969 67.8125 179.281 67.6562C178.594 67.5 178.188 67.4062 178.094 67.4062C178 67.4062 177.875 67.4375 177.719 67.4688C177.531 67.5312 177.406 67.5312 177.344 67.5312C177.219 67.5312 177.062 67.4688 176.875 67.3438C176.344 67.3438 175.688 67.25 174.906 67C174.281 66.8125 173.656 66.625 173.031 66.4062C171.625 65.9375 170.688 65.5312 170.25 65.1562C169.438 64.2812 168.875 63.5938 168.562 63.0938C168 62.2188 167.719 61.75 167.719 61.7188C167.719 61.1562 167.562 60.4062 167.25 59.5L167.281 58.4062C167.281 57.8438 167.219 57.4375 167.062 57.2188C166.5 57.3438 166.156 57.375 166.062 57.3438C165.875 58.375 165.812 59.6875 165.812 61.3125C165.812 63.125 165.875 64.625 166.062 65.8438C166.281 67.4062 166.5 68.2188 166.688 68.3438C167.5 68.9062 168.781 69.4062 170.594 69.8438C171.969 70.1875 172.688 70.4062 172.75 70.5C172.812 70.5938 172.875 70.5625 172.906 70.4375L175.344 70.8438L175.906 70.7812C176.094 70.7812 176.625 70.7812 177.562 70.8438C178.062 70.9062 178.438 70.9062 178.75 70.9062C181 70.9062 183.375 70.5312 185.906 69.7188C186.875 69.4062 187.656 69.0312 188.281 68.5312C189.375 67.6562 190.406 66.5938 191.406 65.4062C191.625 65.0938 191.969 64.2812 192.469 62.9375C192.969 61.5938 193.219 60.6875 193.219 60.2188ZM176.312 34.9375V34.9688C176.281 34.9688 176.312 34.9375 176.312 34.9375ZM167.219 40C167.219 40.0312 167.219 40.0312 167.219 40V40ZM238.25 31.1875C236.688 31 235.438 30.875 234.5 30.875C225.062 30.9688 218.031 31.0312 213.438 31.0938L209.156 31.1875C209.094 31.8125 209.156 32.25 209.344 32.4688C210.156 32.5625 210.688 32.7188 210.938 32.9375C211.75 33.7188 212.344 34.5312 212.781 35.4062C212.875 35.6562 212.938 35.9375 212.969 36.2812C213 36.9062 213.031 37.4062 213.031 37.7812C213.75 39.5938 214.125 41.2188 214.125 42.625C214.125 44.0625 213.75 45.2812 213.031 46.3125C213.281 46.75 213.438 47.25 213.5 47.8438C213.562 48.2812 213.562 48.7812 213.531 49.3438L213.469 50.4375C213.469 51.1875 213.469 52.3125 213.531 53.7812L213.625 55.9375V63.4375C213.625 64.7188 213.219 66.0938 212.469 67.5312C212.281 67.8438 211.781 68.2812 210.938 68.875C210.062 69.5 209.594 69.9688 209.469 70.3438L211.812 70.8438C212.281 70.6562 212.656 70.4688 212.938 70.2812C213.375 70.2188 214.375 70.1875 215.906 70.25C218.75 70.4375 221.125 70.5312 223.062 70.5625C224.188 70.5938 224.938 70.625 225.281 70.6562C225.75 70.5625 226.125 70.3125 226.438 69.9375C223.375 68.75 221.812 68.1562 221.812 68.125C220.688 67.2188 220.125 65.9375 220.125 64.3125C220.125 63.9375 220.156 63.375 220.219 62.5938C220.281 61.8438 220.344 61.25 220.344 60.875C220.188 60.375 220.031 59.9688 219.906 59.6875C219.844 59.2188 219.938 58.5938 220.188 57.8125C220.469 56.75 220.625 56.125 220.656 55.9375C220.719 54.9688 220.75 54.2188 220.75 53.7188C221 53.3438 221.5 53.1875 222.219 53.2188C223 53.2812 223.5 53.2188 223.719 53.0938H228.344C230.406 53.0938 231.688 53.1875 232.219 53.3125C233.094 53.5938 233.688 54.25 234.031 55.3125L234.594 57.875C235.594 57.9688 236.125 57.7188 236.188 57.125C236.625 52.6875 236.875 49.7188 236.938 48.2188C236.844 47 236.75 46.0625 236.656 45.4062C235.969 45.4062 235.5 45.4688 235.281 45.6562C235.062 46.2188 234.906 46.6562 234.844 46.9688C233.719 48.5312 232.438 49.3125 230.938 49.3125H226.938C226.781 49.3125 226.406 49.2812 225.812 49.1562C225.219 49.0312 224.875 48.9688 224.812 48.9688H220.688C220.344 48.3438 220.188 47.5625 220.188 46.625C220.188 46.0312 220.281 45.0625 220.5 43.75C220.688 42.5625 220.75 41.7188 220.719 41.1875C220.5 38.75 220.406 37.6562 220.406 37.9062C220.406 35.9375 220.906 34.9375 221.938 34.9375H227.375C230.625 34.9375 232.719 35.0938 233.688 35.375C234.656 35.6562 235.344 36.4062 235.75 37.625C235.938 38.25 236.094 39.2812 236.219 40.75C236.812 40.75 237.156 40.75 237.25 40.7188C237.75 40.25 238.031 39.8438 238.062 39.4688C238.375 34.9375 238.438 32.1875 238.25 31.1875ZM225.281 70.6562C225.656 70.6875 225.531 70.6875 224.875 70.6875C225 70.6875 225.156 70.6875 225.281 70.6562ZM276.312 51.3438C276.344 51.8438 276.281 52.7188 276.156 54C275.969 55.625 275.875 56.6562 275.844 57.125C275.719 57.4062 275.594 57.5938 275.469 57.7188C275.375 58.2812 275.312 58.75 275.281 59.125C274.969 59.5938 274.719 59.9375 274.531 60.1875C274.125 62.0938 272.875 63.6875 270.812 64.9688C270.312 65.3438 269.938 65.6875 269.656 65.9375C268.344 66.5 267.375 66.8438 266.688 66.9688C266.125 67.1562 265.688 67.2812 265.375 67.375C261.312 67.75 258.531 67.4688 257 66.5312C256.438 66.2188 255.656 65.5625 254.656 64.625C254.031 64.5312 253.656 64.4688 253.594 64.4375C253.344 63.625 253.188 63.1875 253.188 63.1562C252.094 62.1875 251.25 61.1562 250.625 60.0625C250.562 60.0312 250.125 59.125 249.25 57.375C249.125 56.9375 249.062 56.5938 249.062 56.3125C248.781 55.8125 248.562 55.4375 248.438 55.125C248.438 54.9062 248.5 54.7188 248.562 54.5312C248 52.1562 247.594 50.2812 247.312 48.9062C247.281 48.8438 247.312 48.6875 247.406 48.4688C247.469 48.2812 247.531 48.125 247.531 48.0625C247.562 46.875 247.562 46 247.562 45.4062C247.938 43.875 248.25 42.7188 248.438 41.9375C248.781 41.25 249.125 40.6562 249.438 40.1562C249.625 39.7188 249.75 39.3438 249.844 39.0938C250.469 38.1875 250.969 37.4688 251.406 36.9062C251.594 36.8438 251.781 36.7812 251.969 36.7188C252.219 36.4375 252.406 36.1875 252.531 35.9688C254.281 34.9375 255.219 34.375 255.375 34.3125C256.531 33.8125 257.938 33.4375 259.625 33.2188C260.469 33.0938 262.031 33.2188 264.344 33.5938C266.75 34 268.969 35.3125 271.031 37.5625C272.469 39.1875 273.719 41.375 274.781 44.1562C275.594 46.3438 276.125 48.7188 276.312 51.3438ZM283.25 50.5312C283.25 50.375 283.188 50.1562 283.094 49.8438C283 49.5312 282.969 49.3438 282.969 49.25C282.906 46.8125 282.625 44.9375 282.188 43.6875C281.938 43.25 281.719 42.9062 281.562 42.6562C281.188 41.2812 280.438 39.7812 279.25 38.1562C277.906 36.3438 276.438 34.9375 274.812 33.875C273.688 33.1875 272.844 32.6562 272.344 32.3125C269.844 31.375 268.25 30.7812 267.531 30.5625C266.156 30.2188 264.531 30.0312 262.656 30.0312H260.219C259.281 30.0312 257.562 30.3438 255.031 30.9062C254.031 31.1562 253.188 31.4062 252.562 31.7188C250.031 33.0312 248.156 34 246.906 34.6562C246.281 35.2812 245.875 35.8125 245.719 36.25C245.219 36.5312 244.812 36.7188 244.562 36.7812C244.656 37.3438 244.656 37.75 244.562 38.0312C244.25 37.875 244.031 37.8438 243.938 37.9375C243.938 38.25 243.875 38.5312 243.781 38.75C243.031 40.1562 242.406 41.2188 241.969 41.9375C241.656 43.125 241.438 44.0312 241.312 44.6562C241.094 45.1562 240.938 45.5625 240.812 45.8125C240.5 47.9375 240.406 50.125 240.562 52.3125C240.625 53.625 241.031 55.2188 241.75 57.0938C242.5 59.1562 243.344 60.8125 244.344 62.0938C246.094 64.4062 247.969 66.2188 249.969 67.4688C251.625 68.3438 252.875 68.9375 253.719 69.25C254.219 69.4062 254.594 69.5 254.906 69.5625C256.031 70.125 257.719 70.4375 259.969 70.5C260.156 70.625 260.25 70.6875 260.219 70.6875H264.344C267.406 70.4375 270.656 69.4062 274.094 67.5938C274.781 67.125 275.25 66.75 275.531 66.5C275.812 66.375 276.062 66.25 276.25 66.1875C277.469 64.9375 278.375 64 279 63.375C279.75 62.2188 280.188 61.3125 280.375 60.6875C281 59.75 281.5 59.0938 281.844 58.6562C282.219 57.5312 282.438 56.4688 282.5 55.4688C282.719 54.4688 282.938 53.75 283.156 53.25C283.219 52.625 283.25 51.7188 283.25 50.5312ZM308.5 42.5938C308.5 44.7812 308.031 46.75 307.125 48.4375C306.875 48.9375 306.156 49.5938 305.031 50.375C303.906 51.1562 302.719 51.5312 301.5 51.5312C301.094 51.5312 300.719 51.5 300.375 51.4062H297.281C297.156 51.2812 297.094 51.1875 297.031 51.125C296.844 49.75 296.812 48.375 296.938 47C297.125 44.9375 297.219 43.75 297.219 43.4375C297.094 43.125 297 42.9062 296.906 42.7188C296.969 40.5312 297.188 37.625 297.531 34.0312C297.906 33.8438 298.219 33.7188 298.406 33.6875C300.219 33.625 301.531 33.6562 302.344 33.8438C303.562 34.1562 304.688 34.8438 305.688 35.9062C306.406 36.6875 307.281 38.4688 308.344 41.2188C308.438 41.4688 308.5 41.9062 308.5 42.5938ZM325.625 69.3438C325.625 69.0625 325.594 68.8438 325.562 68.6875C325.188 68.6562 324.594 68.7188 323.781 68.875C323.219 69 322.531 68.9375 321.719 68.7188C320.344 68.3438 319.594 68.0938 319.406 67.9062C317.156 66 315.281 63.6875 313.719 60.9375L309.781 53.375C309.594 53.0625 309.5 52.6562 309.531 52.2188C311.531 50.3438 312.906 48.9062 313.625 47.8438C314.375 46.7188 314.906 45.0625 315.188 42.8438C315.312 41.8125 315.344 41.0312 315.312 40.5C315.25 39.875 315.219 39.375 315.219 39.0312C314.531 36.7812 313.781 35.1875 312.938 34.2812C311.375 32.7188 309.625 31.75 307.625 31.4375C307.312 31.3438 307.125 31.25 307 31.1562C305.688 30.9062 304.719 30.6875 304.062 30.5312C303 30.4062 302.094 30.3438 301.406 30.3438C300.844 30.3438 300.156 30.4062 299.375 30.5312C298.562 30.6562 297.812 30.7188 297.062 30.7188H293.031C292.969 30.7188 292.094 30.8125 290.375 30.9688C288.5 31.125 287.125 31.2188 286.281 31.25C286 31.2812 285.812 31.375 285.719 31.5625C285.719 31.7188 285.75 32.0625 285.75 32.5312C286.344 32.6562 286.969 32.8125 287.594 32.9375C288.312 33.0938 288.906 33.4375 289.375 34C289.719 35.0938 289.906 35.9688 289.938 36.625C290.281 38.75 290.406 40 290.344 40.375C290.094 41.7188 290.062 42.7812 290.312 43.5938C290.375 43.7188 290.438 43.7812 290.469 43.8125C290.281 46.7812 290.188 48.1562 290.188 47.9688C290.25 48.5938 290.281 48.9062 290.281 48.9062V52.0625C290.281 52.75 290.312 53.2812 290.438 53.6562C290.656 54.0938 290.844 54.375 291 54.5C290.656 55.0312 290.469 55.4062 290.406 55.625C290.344 55.875 290.344 57.4062 290.344 60.2188C290.344 60.7188 290.281 61.4688 290.156 62.4062C290 63.4688 289.938 64.0938 289.938 64.3438C289.844 65.9062 289.688 66.8438 289.5 67.2188C289 68.0938 288.375 68.6875 287.625 69.0312C287.375 69.1562 286.688 69.375 285.625 69.6562C285.625 69.75 285.625 69.875 285.688 70.0625C285.75 70.25 285.781 70.375 285.781 70.4375C286.219 70.625 286.594 70.7188 286.906 70.7188H290.062L292.094 70.5625C293.469 70.4688 294.469 70.4062 295.125 70.4062C295.344 70.4062 295.719 70.4688 296.25 70.5625C296.75 70.6875 297.031 70.7188 297.094 70.7188H300.375C301 70.7188 301.594 70.5938 302.219 70.3438C302.281 70.0312 302.281 69.7812 302.281 69.5312L299.906 68.8438C298.906 68.5312 298.219 67.9688 297.781 67.2188C297.562 66.5 297.469 65.9375 297.469 65.5625C297.156 64.2188 296.969 63.125 296.969 62.2812C296.844 58 296.719 55.4375 296.656 54.625C296.844 54.375 297.031 54.25 297.188 54.25C298.531 54.25 299.562 54.25 300.25 54.2812C300.781 54.2188 301.312 54.1562 301.844 54.0938C302.656 54.0312 303.188 54.125 303.406 54.3438C303.875 55.2812 304.219 56.0312 304.406 56.5938C305.156 58.1562 306.188 60.0625 307.5 62.3125C308.938 64.8125 309.75 66.1562 309.938 66.3438C311.906 68.5938 313.281 69.8438 314.094 70.0938C315.031 70.4062 315.719 70.6562 316.188 70.8125C316.812 70.9375 317.75 70.9688 319.031 70.9688H322.781C323.188 70.9688 323.875 70.7188 324.812 70.1875C325.188 69.875 325.438 69.5938 325.625 69.3438ZM285.719 31.5625C285.688 31.625 285.656 31.6875 285.656 31.7812C285.688 31.4062 285.688 31.3125 285.719 31.5625ZM290.188 47.9688C290.188 47.9688 290.188 47.9688 290.188 47.9375C290.188 47.9688 290.188 47.9688 290.188 47.9688ZM370.969 31.3438C370.75 30.9688 370.344 30.8125 369.719 30.875L368.281 31.0625C367 31.125 365.688 31.2812 364.312 31.4688L362.438 31.7812H357.281L353.469 31.4375C350.844 31.2188 348.875 31.0938 347.594 31.0938C343.156 31.0938 341.25 31.125 341.875 31.1875L340.875 32.5C340.719 33.25 340.5 34.7188 340.25 36.875C340 38.6875 339.781 40 339.531 40.8438C339.469 41.0312 339.5 41.2812 339.562 41.6562C339.625 42.0938 339.688 42.375 339.688 42.4375C340.406 42.4375 340.875 42.2812 341.094 41.9062C341.5 41.2188 341.938 39.9375 342.375 38.0625C342.438 37.6562 342.938 37.125 343.844 36.4375C344.719 35.7812 345.469 35.4375 346.094 35.4375H351.875C352.156 38.375 352.312 39.9688 352.375 40.2188C352.781 41.5312 353.125 42.5 353.438 43.1875C353.312 43.375 353.25 43.4688 353.219 43.4688H352.375V54.7188C352.25 57.875 352.125 60.875 352.062 63.75C351.906 65.4062 351.75 66.3438 351.625 66.5625C351.094 67.375 350.281 68.0938 349.219 68.6562C347.969 69.125 347 69.4375 346.375 69.5625C346.344 69.8438 346.344 70 346.344 70.0625C346.344 70.3125 346.406 70.4375 346.594 70.4375H364.312C364.781 69.8438 365.031 69.375 365.031 69.0625C364.062 68.875 363.094 68.6562 362.156 68.4062C360.969 68.125 360.25 67.4688 360.062 66.4062C359.625 64.25 359.281 62.625 359.062 61.5625C359 59.5625 359.031 58.0625 359.125 57.0625L358.719 52.75C359.156 48.3438 359.219 44.875 358.938 42.3438C358.656 39.8438 358.688 37.9062 359.062 36.5625C359.188 36.0625 359.562 35.6875 360.125 35.5C361.719 35.1875 362.938 35 363.812 34.9062C365.5 34.5312 366.594 34.5312 367.062 34.8438C368.125 35.5625 368.719 36.5938 368.906 37.9062C369.188 40.2188 369.344 41.4688 369.406 41.625C369.5 41.625 369.688 41.5938 369.969 41.5312C370.219 41.4688 370.406 41.4375 370.531 41.4375V34.1875C370.688 33.0938 370.844 32.1562 370.969 31.3438ZM415.562 31.375C413.75 31.125 412.406 30.9062 411.469 30.75C410.531 30.7188 409.188 30.7188 407.438 30.7812C406.25 30.8438 405.406 30.8438 404.844 30.8438H400.188C399.969 30.8438 399.656 31.0625 399.281 31.4688C402.156 33.0312 403.719 34.8125 403.906 36.875C403.906 37 403.969 37.8125 404.156 39.3125C404.281 40.625 404.344 41.2812 404.344 41.2812C404.344 41.5312 404.438 42.25 404.656 43.5C404.656 43.625 404.5 44.5 404.219 46.0938C404.125 46.5312 404.188 46.7812 404.375 46.8438C404.25 46.8125 404 46.8438 403.688 46.9062C403.562 46.9375 403.375 47.0938 403.125 47.3438C403 47.4688 402.562 47.5312 401.812 47.5938C400.562 47.7188 399.906 47.7812 399.875 47.8125H387.469C386.844 47.8125 386 47.5 384.969 46.8438C384.938 46.8438 384.906 46.7188 384.875 46.5C384.844 46.3438 384.812 46.2188 384.781 46.0938V39.7188C384.781 37.2188 385.094 35.5 385.781 34.5625C386.188 34 386.844 33.4688 387.75 32.9688C388.469 32.5938 389.188 32.25 389.938 31.875C388.875 31.0625 388.156 30.6562 387.75 30.6562C387.625 30.6562 387.438 30.6875 387.156 30.75C386.844 30.8125 386.562 30.8438 386.312 30.8438H380.375C380.312 30.8438 379.531 30.9062 378.031 31.0312C376.438 31.1562 375.281 31.25 374.531 31.25C374.094 31.9375 373.844 32.2812 373.844 32.3125C374.75 32.625 375.688 33.2188 376.625 34.1562C377.562 35.0938 378.031 35.9062 378.031 36.5625V41.5938C378.031 41.6875 378.062 42.0625 378.156 42.6875C378.25 43.3438 378.281 43.8438 378.281 44.1562C378.188 45.625 378.125 46.3438 378.062 46.2812C378.406 47.125 378.688 47.7188 378.938 48.0625C378.938 48.375 378.875 48.7812 378.688 49.25C378.469 49.8125 378.344 50.1562 378.344 50.25C378.094 51.4375 378 53.8125 378.062 57.4062C378.312 57.8438 378.438 58.0938 378.438 58.0938C378.438 60.9688 378.406 62.6562 378.375 63.1562C378.219 65.0625 377.938 66.3438 377.5 67.0312C376.906 67.9375 376.062 68.625 374.969 69.0625C374.031 69.4375 373.531 69.8125 373.531 70.1875L385.844 70.375C386.281 70.4062 386.531 70.4375 386.625 70.4688C386.719 70.5312 387.031 70.5625 387.531 70.5625C388.406 70.5625 389.219 70.1875 389.938 69.4062C389.125 69.0938 388.656 68.9375 388.594 68.9062C386.406 68.375 385.219 66.4688 385.062 63.1562C384.875 60 384.812 58.375 384.844 58.25C385.031 57.3125 385.094 56.75 385.062 56.5312C384.844 55.875 384.656 55.375 384.5 55C384.375 54.0938 384.5 53.375 384.812 52.875C385 52.5 385.219 52.0938 385.406 51.6875L394.531 51.375C394.562 51.375 395.156 51.4688 396.25 51.6562C397.031 51.7812 397.969 51.75 399.062 51.5312C400 51.3438 401.75 51.4062 404.312 51.6562C404.312 51.7188 404.281 51.9062 404.219 52.2812C404.094 52.8438 404.094 53.6875 404.219 54.8438C404.344 56.4688 404.438 57.3438 404.438 57.4062V61.9688C404.438 62.7812 404.188 63.875 403.719 65.25C403.156 66.875 402.531 67.8125 401.906 68.125C401.031 68.5625 400.375 68.875 399.938 69.0625C399.938 69.1875 399.969 69.375 400.031 69.625C400.094 69.875 400.125 70.0625 400.125 70.1875H414.719C415.031 69.7812 415.281 69.4688 415.406 69.25C414.906 69.2188 414.281 69 413.594 68.625C412.875 68.25 412.406 67.9062 412.219 67.5312C411.094 65.6562 410.562 62.4062 410.562 57.75V53.125L410.75 50.6875C410.875 48.9375 410.969 47.4375 410.969 46.1875C410.969 45.1562 410.906 44.3125 410.844 43.6562C410.562 41.5312 410.438 40.4688 410.438 40.4375C410.438 40.1562 410.594 39.4688 410.969 38.3438C410.938 38.2188 410.938 37.4688 410.938 36.0312C410.938 35.6562 411.156 35.125 411.656 34.375C412.156 33.6562 412.562 33.1875 412.938 32.9375C413.562 32.5625 414.312 32.25 415.188 32C415.438 31.8125 415.562 31.625 415.562 31.375ZM378.062 46.2812C378.062 46.2812 378.062 46.25 378.062 46.2188C378.062 46.25 378.062 46.2812 378.062 46.2812ZM410.969 38.3438C410.969 38.3125 410.969 38.2812 411 38.25C410.969 38.375 410.969 38.4062 410.969 38.3438ZM450.344 60.0312C449.531 59.8125 448.844 59.875 448.312 60.2188C448.219 61.4062 447.594 62.625 446.469 63.9062C445.406 65.0938 444.344 65.9062 443.25 66.4062C442.438 66.7812 441.469 66.9688 440.312 66.9688H435.125C434.938 66.9688 434.75 66.9375 434.562 66.875L434.25 66.75C433.531 66.6562 432.688 66.25 431.688 65.5312C430.688 64.8438 430.125 64.2188 430 63.7188C429.906 63.4375 429.875 63.125 429.875 62.75C429.875 62.3125 429.938 61.6875 430.125 60.875C430.312 60.0625 430.406 59.5312 430.438 59.2188C430.438 58.6562 430.375 57.875 430.25 56.8125C430.094 55.7812 430.031 55.0625 430.031 54.6875C430.031 54.3125 430.188 53.75 430.531 53C430.812 52.375 431.5 52.0312 432.625 52.0312C433 52.0312 433.594 52.0938 434.406 52.1875C435.188 52.3125 435.719 52.3438 436 52.3438H440.312C441.344 52.3438 442.5 52.8438 443.781 53.7812C444.469 54.5938 444.938 55.25 445.219 55.75C445.969 55.875 446.375 55.7812 446.469 55.4062C446.719 53.0312 446.875 51.25 446.906 50C446.969 48.1562 447.062 46.625 447.156 45.4375C446.969 45 446.531 44.75 445.875 44.75C445.312 45.7188 444.906 46.4688 444.719 47C444.469 47.4375 444.062 47.7812 443.5 47.9688C443.125 48.0938 442.781 48.2188 442.406 48.3438H430.625C430.25 48.0312 430.031 47.75 430.031 47.5312C429.969 47.0938 429.969 46.4688 430.094 45.7188C430.188 44.8125 430.25 44.2188 430.25 43.9062C430.25 42.7812 430.219 42.25 430.188 42.3438C430.844 40.4688 430.812 38.3125 430.094 35.875C430.156 35.4688 430.344 35.2188 430.594 35.1562C431.438 34.9688 432.719 34.9375 434.406 35.0625C437.469 35.2812 439.438 35.25 440.375 34.9688C440.719 34.875 441.219 34.9062 441.875 35.0312C442.344 35.1562 442.812 35.25 443.281 35.3438C444.406 35.4688 445.156 36.1875 445.594 37.5C446.219 39.5312 446.625 40.6562 446.75 40.8438C447.281 40.5938 447.594 40.375 447.656 40.25C448.062 36.4062 448.281 34.125 448.312 33.4375C448.312 33.2812 448.375 33.0312 448.5 32.6562C448.625 32.3125 448.719 32.0312 448.719 31.8438C448.719 31.5312 448.531 31.25 448.219 31C444.406 30.8125 442.062 30.75 441.188 30.8125C437.25 31.0938 435.188 31.2188 434.938 31.2188C434.312 31.2188 433.438 31.125 432.25 30.9688C431.062 30.8438 430.438 30.75 430.375 30.75H424.844L422.906 31.2188C421.688 31.2812 420.75 31.25 420.125 31.1562C419.781 31.2188 419.469 31.5625 419.188 32.25C419.812 32.5625 420.438 32.8438 421.062 33.0938C421.75 33.4688 422.281 33.9375 422.594 34.5312C422.812 34.9688 422.969 35.5625 423.031 36.25V38.375C423 39.3125 423.062 40 423.219 40.4375C423.219 40.4688 423.375 40.75 423.688 41.25C423.906 41.6875 424 42 424 42.125C423.562 43.8125 423.375 44.6562 423.375 44.6875C423.375 45.25 423.562 45.6875 423.938 46C423.75 47.25 423.812 48.3125 424.094 49.125C423.594 51.8438 423.344 54 423.344 55.5938V65.4688C423.344 66.4688 422.781 67.2812 421.719 67.9688C420.125 68.9375 419.219 69.5625 419 69.8438L419.406 70.2812H424.125C424.25 70.2812 424.906 70.3438 426.062 70.4688C427.219 70.5938 427.875 70.625 428 70.625H432.812C432.938 70.625 433.875 70.6562 435.625 70.7188C437.344 70.7812 438.281 70.8125 438.438 70.8125H446.406C446.719 70.8125 447.156 70.5 447.719 69.8125C448.156 69.2812 448.438 68.9062 448.531 68.6562C448.75 67.9062 448.906 67.3438 449 66.9062C449.375 65.9375 449.688 65.1875 449.938 64.625C450.125 62.6562 450.281 61.125 450.344 60.0312ZM518.062 68.9062C517.875 68.625 517.656 68.4375 517.406 68.3438C517.25 68.3125 516.906 68.3125 516.375 68.3438C515.938 68.375 515.562 68.2812 515.312 68.0312C514.375 67.2812 513.812 66.3125 513.594 65.1562C513.5 64.7812 513.406 63.5 513.281 61.2812C513.031 59.625 512.781 58.375 512.562 57.5312C512.312 56.25 512.219 54.9375 512.281 53.625L512.406 50.1875C512.344 48.125 512.312 46.5938 512.312 45.5938C512.25 44.6562 512.156 43.625 512.031 42.5C511.688 40.0938 511.656 38.2812 511.938 37.0625C512.25 35.5938 512.438 34.8438 512.469 34.7812C513.156 34.0938 513.719 33.625 514.125 33.3438C514.531 33.0938 514.812 32.875 515 32.75L516.812 32.5C517.5 32.375 517.844 31.9688 517.781 31.3125C517.75 31.0625 517.625 30.9062 517.406 30.8125C516.938 30.6875 516.5 30.6875 516.125 30.875C515.719 31.0625 515.438 31.1875 515.281 31.2812C514.531 31.375 513.938 31.4062 513.531 31.4062C512.844 31.5938 511.719 31.5938 510.219 31.4375C509.719 31.3125 509.375 31.1562 509.156 31.0312C507.219 30.7188 505.969 31.1875 505.406 32.4375C505.188 33.2188 505.062 33.7812 505.062 34.1562C503.812 37.1562 503.188 38.6875 503.188 38.7812C503 39.7188 502.906 40.2188 502.844 40.2812C502.094 41.3438 501.594 42.0625 501.281 42.5L500.406 44.5C500.156 45.3125 500.031 45.9062 499.969 46.3438C499.906 46.4688 499.781 46.625 499.594 46.8438C499.406 47.0625 499.281 47.2188 499.281 47.2812C498.906 48.0625 498.656 48.625 498.5 49C498.281 49.6562 498.125 50.125 498.062 50.4375C497.25 51.9375 496.438 53.9062 495.625 56.3438C494.781 58.7812 494.031 60.625 493.406 61.8438C493.25 62.125 493.062 62.2812 492.812 62.3125C492.438 62.25 492.219 62 492.125 61.5C492 60.75 491.906 60.3125 491.844 60.2188C491.344 59.5312 490.969 59.0312 490.656 58.6875C489.906 57.25 489.312 55.9688 488.938 54.7812C488.562 53.5938 488.188 52.5625 487.844 51.6875C486.344 48.0625 484.781 44.375 483.125 40.5938C482.875 40.1875 482.688 39.875 482.531 39.625C482.438 38.875 482.375 38.3125 482.375 37.9062C481.875 37.2188 481.438 36.6875 481.094 36.375C480.844 35.625 480.656 35.0625 480.562 34.6562C480.188 33.9062 479.906 33.4062 479.75 33.125C479.375 31.875 478.875 31.25 478.25 31.2188C475.969 31.0938 474.781 31.0312 474.688 31.0312C474.469 31.0312 474.094 31.0938 473.594 31.1875C473.156 31.25 472.875 31.2812 472.688 31.25C471.188 31.0625 470 30.875 469.125 30.75C467.938 30.625 467.094 30.75 466.594 31.1875C466.594 31.5625 466.906 31.8438 467.5 32C467.562 32.0312 468 32.125 468.875 32.2812C469.75 32.4688 470.438 32.5938 470.969 32.6562C471.469 32.75 471.875 32.8125 472.156 32.8438C472.656 33.5312 472.906 34.0625 472.938 34.5C473.25 35.125 473.469 35.5938 473.656 35.9062C473.719 36.4375 473.719 36.875 473.656 37.25C473.594 37.4688 473.438 37.8438 473.219 38.375C473 38.9062 472.906 39.2188 472.906 39.2812V43.6562C472.906 43.7188 472.875 43.9062 472.812 44.1875C472.75 44.4688 472.719 44.6562 472.719 44.7188C472.75 45.4688 472.719 46.9062 472.656 49.0312C472.594 50.2812 472.531 50.9688 472.5 51.125C472.125 53.5625 471.969 55.4375 472 56.6875C472 56.75 471.969 56.8438 471.906 57C471.844 57.1875 471.844 57.3125 471.844 57.375V59.75C471.844 60.0312 471.75 60.5312 471.625 61.2812C471.438 61.7812 471.312 62.1875 471.219 62.4375C471.031 64.2812 470.906 65.375 470.844 65.6875C470.469 67.0625 469.812 68 468.812 68.4688C468.5 68.6562 468.25 68.8125 468.062 68.9062C467.188 69.0312 466.719 69.0938 466.625 69.1562C466.375 69.2812 466.281 69.5312 466.344 69.875C466.406 70.1875 466.531 70.4062 466.719 70.5312C468.156 70.5625 469.562 70.5 470.938 70.3438C471.219 70.3125 471.656 70.2812 472.219 70.2812H475.062C477 70.5312 478.188 70.4375 478.625 69.9375C478.75 69.5312 478.656 69.25 478.344 69.0625C477.469 68.75 476.844 68.5312 476.438 68.4375C475.938 68.1562 475.438 67.5938 474.938 66.7188C474.75 66.0938 474.625 65.5938 474.625 65.2188C474.625 63.8125 474.625 62.7812 474.656 62.1562C474.688 61.5312 474.719 61.3125 474.719 61.5V58.9062L475.5 47.125V44.125L475.531 43.2812C475.562 42.7812 475.562 42.4062 475.562 42.125C475.469 41.625 475.375 41.25 475.312 41C475.312 40.0625 475.375 39.5 475.562 39.3438C476.156 39.3438 476.719 39.9062 477.281 41C477.844 42.625 478.219 43.8438 478.406 44.6562C480.344 48.9062 481.812 52 482.844 53.9375C483 54.4375 483.125 54.8438 483.188 55.0938C485.375 59.3438 486.5 61.5625 486.562 61.6875C486.969 62.8125 487.281 63.7188 487.5 64.375C488.062 65.6562 488.531 66.625 488.875 67.25C489.531 68.75 490.031 69.6875 490.344 70C490.656 70.3125 491.094 70.4375 491.656 70.375C492.562 70.2812 493.031 70.2188 493.062 70.2188C493.469 69.5312 493.688 69 493.719 68.5938C494.969 65.6562 495.625 64.1875 495.625 64.1562C495.844 63.6875 496.031 63.3438 496.219 63.125C496.406 62.5312 496.531 62.0938 496.594 61.7812C496.812 61.2812 497 60.9062 497.188 60.625C497.438 59.8125 497.594 59.3438 497.625 59.2812C497.812 59.0312 497.938 58.8438 498.062 58.7188C498.281 57.9375 498.438 57.3438 498.5 56.9062C499.156 55.5938 499.688 54.5938 500.062 53.9375C500.25 53.4375 500.344 53 500.406 52.6875C500.625 52.3125 500.844 51.9688 501.031 51.7188C501.156 51.1562 501.219 50.7188 501.281 50.4062C502 48.9375 502.562 47.8125 502.938 47.0312C503.062 46.6562 503.125 46.3438 503.188 46.0938C503.406 45.7188 503.562 45.4688 503.688 45.3125C503.906 44.5625 504.062 44 504.156 43.5938C504.406 43.0625 504.656 42.6562 504.844 42.3438C505.094 41.4062 505.469 40.75 505.969 40.375C506.219 40.625 506.375 40.9375 506.375 41.375C506.375 41.6562 506.312 42 506.188 42.375C506.062 42.7812 506.031 43 506.031 43C505.969 43.5312 506 44.5 506.125 45.875C506.125 46.1875 506.219 46.7188 506.406 47.4375C506.594 48.1562 506.688 48.5312 506.688 48.5625V51.0312C507 54.1875 507.125 56.625 507.094 58.3125C507.094 58.4688 507.125 58.7188 507.188 59.0312C507.25 59.375 507.312 59.625 507.312 59.75C507.219 62.2812 507.156 64.1562 507.125 65.4062C506.844 67.2812 506.125 68.2812 504.938 68.4062C503.375 68.5625 502.594 68.6562 502.531 68.6562C502.312 68.7188 502.156 68.875 502.031 69.125C501.906 69.375 501.875 69.5938 501.938 69.7188C502.156 70.1875 502.75 70.375 503.688 70.2812C504.75 70.1875 505.5 70.0938 506 70C506.5 69.9062 508.219 69.875 511.156 69.9375C511.406 69.9375 512 69.9375 512.906 69.9062C513.625 69.875 514.219 69.875 514.688 69.9062C515.312 69.9688 515.906 70.0938 516.406 70.3125C516.562 70.375 516.719 70.4062 516.906 70.4062C517.75 70.4062 518.188 70.0625 518.188 69.3438C518.188 69.2188 518.125 69.0625 518.062 68.9062ZM542.156 53.8438H531.781C531.781 53.5312 531.75 53.3125 531.75 53.25C531.906 53 532 52.7812 532.125 52.625C532.312 51.75 532.469 51.0938 532.594 50.5938C532.781 50.2188 532.938 49.9375 533.094 49.7188C533.156 49.1562 533.219 48.7188 533.25 48.3438C533.438 47.8125 533.625 47.4062 533.781 47.0938C533.938 46.4688 534.062 45.9688 534.125 45.6562C534.281 45.4062 534.438 45.1875 534.562 45.0625C535.469 43.3125 536.312 41.5938 537.062 39.875C537.375 40.6875 537.594 41.3125 537.719 41.75C538.125 42.6875 538.469 43.4062 538.719 43.9062C539.219 45.5625 539.625 46.8125 539.875 47.625C541.375 51.75 542.125 53.8438 542.156 53.8438ZM558.219 70.2188V69.375C557.594 69.1875 557.156 69.0312 556.844 68.9062C555.781 68.5312 555.188 68.1875 555.062 67.9375C554.562 67 554.188 66.375 554 66C553.375 64.4688 552.938 63.2812 552.656 62.4062C552.594 62.125 552.562 61.9062 552.594 61.7188C552.188 61.0312 551.875 60.5312 551.656 60.1875C551 58.6562 550.562 57.625 550.312 57.0625C550.188 56.7188 550.156 56.4688 550.156 56.2812C549.812 55.2188 549.625 54.375 549.562 53.7812C548.625 51.2188 547.969 49.2188 547.531 47.7812C546.875 46.3438 546.375 45.2188 546.062 44.4688C545.781 43.5312 545.688 43 545.812 42.8438C545.25 42.0312 544.812 41.125 544.5 40.125C544.312 39.375 544.188 38.7812 544.156 38.375C542.75 34.9688 541.781 32.4688 541.25 30.9062C539.594 30.7812 538.375 30.7188 537.562 30.6875C536.688 30.625 536.219 30.6875 536.094 30.8125C535.844 31.3125 535.688 31.7188 535.625 31.9688C535.062 33.2188 534.719 34.1562 534.531 34.7812C534.312 35.5312 534.156 36.0625 534.062 36.4062C533.312 38.0312 532.844 39.2188 532.719 40.0312C532.094 41.75 531.625 43.0312 531.312 43.9062C531.25 44.2812 531.25 44.5938 531.25 44.7812C531.344 44.4688 531.406 44.2812 531.469 44.2188C531.469 44.2188 531.5 44.25 531.5 44.3125C531.5 44.6875 531.375 45.25 531.188 46.0625C530.938 46.9688 530.75 47.4062 530.625 47.4062C530.5 47.4062 530.438 47.25 530.375 46.9062C530.25 47.0938 530.125 47.2188 530.062 47.2812C529.125 50.125 528.438 52.25 527.969 53.6875C527.312 55.6562 526.781 57.125 526.375 58.0625C525.75 60.0938 525.281 61.5938 524.969 62.5938C524.219 64.2188 523.688 65.4062 523.344 66.1562C522.969 66.9062 522.562 67.4375 522.094 67.75C521.531 68.25 521.156 68.6562 520.938 68.9688C520.312 69.4375 520 69.7812 520 70.0312C520 70.125 520 70.2188 520.062 70.3125C521.531 70.5 522.281 70.5938 522.344 70.5938C523.344 70.4688 524.062 70.3125 524.562 70.1562C526.812 70.2188 528.562 70.3125 529.781 70.4062C530.531 70.2812 531.156 70.125 531.594 70C531.469 69.8438 531.344 69.625 531.188 69.3125C530.938 69.25 530.781 69.2188 530.688 69.1562C530.281 69.0312 529.812 68.7188 529.25 68.25C528.688 67.8125 528.375 67.4688 528.312 67.25C528.156 66.9062 528.156 66.25 528.312 65.25C528.5 63.9375 528.594 63.3125 528.594 63.375C528.594 63.0938 528.812 62.2188 529.312 60.7812C529.688 59.9062 529.969 59.2188 530.188 58.75C530.594 57.875 531.031 57.4375 531.531 57.4375L538.125 57.3438C541.188 57.1875 542.875 57.0938 543.25 57.0938C543.5 57.0938 543.625 57.1562 543.656 57.2812C543.656 57.7188 543.812 58.375 544.156 59.1875C544.562 60.25 544.781 60.8438 544.844 60.9688C545.406 63.4062 545.812 65.2188 546.094 66.4062C546.188 66.6562 546.156 67 546 67.4375C545.812 67.875 545.594 68.1875 545.281 68.375C544.531 68.625 543.938 68.7812 543.531 68.8125C543.406 69.25 543.375 69.7812 543.438 70.4062C543.75 70.7812 544.375 70.875 545.312 70.6875C547 70.375 549.344 70.2188 552.375 70.2188H554.875L556.562 70.375C557.281 70.4375 557.844 70.4062 558.219 70.2188ZM528.594 63.375H528.625C528.594 63.375 528.594 63.375 528.594 63.375ZM583.188 42.5938C583.188 44.7812 582.719 46.75 581.812 48.4375C581.562 48.9375 580.844 49.5938 579.719 50.375C578.594 51.1562 577.406 51.5312 576.188 51.5312C575.781 51.5312 575.406 51.5 575.062 51.4062H571.969C571.844 51.2812 571.781 51.1875 571.719 51.125C571.531 49.75 571.5 48.375 571.625 47C571.812 44.9375 571.906 43.75 571.906 43.4375C571.781 43.125 571.688 42.9062 571.594 42.7188C571.656 40.5312 571.875 37.625 572.219 34.0312C572.594 33.8438 572.906 33.7188 573.094 33.6875C574.906 33.625 576.219 33.6562 577.031 33.8438C578.25 34.1562 579.375 34.8438 580.375 35.9062C581.094 36.6875 581.969 38.4688 583.031 41.2188C583.125 41.4688 583.188 41.9062 583.188 42.5938ZM600.312 69.3438C600.312 69.0625 600.281 68.8438 600.25 68.6875C599.875 68.6562 599.281 68.7188 598.469 68.875C597.906 69 597.219 68.9375 596.406 68.7188C595.031 68.3438 594.281 68.0938 594.094 67.9062C591.844 66 589.969 63.6875 588.406 60.9375L584.469 53.375C584.281 53.0625 584.188 52.6562 584.219 52.2188C586.219 50.3438 587.594 48.9062 588.312 47.8438C589.062 46.7188 589.594 45.0625 589.875 42.8438C590 41.8125 590.031 41.0312 590 40.5C589.938 39.875 589.906 39.375 589.906 39.0312C589.219 36.7812 588.469 35.1875 587.625 34.2812C586.062 32.7188 584.312 31.75 582.312 31.4375C582 31.3438 581.812 31.25 581.688 31.1562C580.375 30.9062 579.406 30.6875 578.75 30.5312C577.688 30.4062 576.781 30.3438 576.094 30.3438C575.531 30.3438 574.844 30.4062 574.062 30.5312C573.25 30.6562 572.5 30.7188 571.75 30.7188H567.719C567.656 30.7188 566.781 30.8125 565.062 30.9688C563.188 31.125 561.812 31.2188 560.969 31.25C560.688 31.2812 560.5 31.375 560.406 31.5625C560.406 31.7188 560.438 32.0625 560.438 32.5312C561.031 32.6562 561.656 32.8125 562.281 32.9375C563 33.0938 563.594 33.4375 564.062 34C564.406 35.0938 564.594 35.9688 564.625 36.625C564.969 38.75 565.094 40 565.031 40.375C564.781 41.7188 564.75 42.7812 565 43.5938C565.062 43.7188 565.125 43.7812 565.156 43.8125C564.969 46.7812 564.875 48.1562 564.875 47.9688C564.938 48.5938 564.969 48.9062 564.969 48.9062V52.0625C564.969 52.75 565 53.2812 565.125 53.6562C565.344 54.0938 565.531 54.375 565.688 54.5C565.344 55.0312 565.156 55.4062 565.094 55.625C565.031 55.875 565.031 57.4062 565.031 60.2188C565.031 60.7188 564.969 61.4688 564.844 62.4062C564.688 63.4688 564.625 64.0938 564.625 64.3438C564.531 65.9062 564.375 66.8438 564.188 67.2188C563.688 68.0938 563.062 68.6875 562.312 69.0312C562.062 69.1562 561.375 69.375 560.312 69.6562C560.312 69.75 560.312 69.875 560.375 70.0625C560.438 70.25 560.469 70.375 560.469 70.4375C560.906 70.625 561.281 70.7188 561.594 70.7188H564.75L566.781 70.5625C568.156 70.4688 569.156 70.4062 569.812 70.4062C570.031 70.4062 570.406 70.4688 570.938 70.5625C571.438 70.6875 571.719 70.7188 571.781 70.7188H575.062C575.688 70.7188 576.281 70.5938 576.906 70.3438C576.969 70.0312 576.969 69.7812 576.969 69.5312L574.594 68.8438C573.594 68.5312 572.906 67.9688 572.469 67.2188C572.25 66.5 572.156 65.9375 572.156 65.5625C571.844 64.2188 571.656 63.125 571.656 62.2812C571.531 58 571.406 55.4375 571.344 54.625C571.531 54.375 571.719 54.25 571.875 54.25C573.219 54.25 574.25 54.25 574.938 54.2812C575.469 54.2188 576 54.1562 576.531 54.0938C577.344 54.0312 577.875 54.125 578.094 54.3438C578.562 55.2812 578.906 56.0312 579.094 56.5938C579.844 58.1562 580.875 60.0625 582.188 62.3125C583.625 64.8125 584.438 66.1562 584.625 66.3438C586.594 68.5938 587.969 69.8438 588.781 70.0938C589.719 70.4062 590.406 70.6562 590.875 70.8125C591.5 70.9375 592.438 70.9688 593.719 70.9688H597.469C597.875 70.9688 598.562 70.7188 599.5 70.1875C599.875 69.875 600.125 69.5938 600.312 69.3438ZM560.406 31.5625C560.375 31.625 560.344 31.6875 560.344 31.7812C560.375 31.4062 560.375 31.3125 560.406 31.5625ZM564.875 47.9688C564.875 47.9688 564.875 47.9688 564.875 47.9375C564.875 47.9688 564.875 47.9688 564.875 47.9688ZM635.344 31.6875C633.438 31.375 631.906 31.25 630.75 31.25L625.781 30.8125H621.781C620.562 30.8125 619.531 30.875 618.688 31C616.438 31.5 614.75 31.9062 613.625 32.2188C613.125 32.1875 612.781 32.125 612.562 32.0625C612.062 32.3438 611.719 32.5938 611.5 32.8125C611.219 32.8125 611 32.8125 610.875 32.75C609.031 34.5312 607.656 35.875 606.75 36.8125C606.594 36.9688 606.281 37.0312 605.844 36.9688C605.5 37.0938 605.094 37.5 604.594 38.2188C604.344 38.5625 603.969 39.125 603.5 39.9375C602.906 40.9375 602.469 41.6875 602.156 42.1875C601.312 45.875 600.875 47.9375 600.875 48.4375C600.75 50.625 600.719 52.0312 600.75 52.5938C600.875 53.5938 600.969 54.3438 601.094 54.8438C601.344 55.4688 601.562 55.9375 601.75 56.25C601.781 56.5625 601.812 56.8125 601.812 56.9688C602.125 57.7188 602.375 58.25 602.562 58.625C603.281 60.875 604.844 63.0312 607.25 65.1562C609.531 67.1562 611.812 68.4688 614.094 69.0625C614.594 69.2812 614.969 69.4688 615.25 69.5938C615.594 69.6562 615.875 69.6562 616.094 69.6562C618.531 70.4375 621.562 70.625 625.188 70.1875C626.719 70 627.875 69.875 628.656 69.75C629.438 69.6562 630.656 69.4062 632.281 68.9688C633.344 68.6875 633.969 68.4375 634.156 68.1875C634.5 67.0938 634.688 66.2188 634.719 65.5625C634.969 63.5 635.062 61.375 635 59.1875C634.938 57.7812 634.625 57.0625 634.031 57.0625C633.906 57.0625 633.781 57.0938 633.625 57.1562C633.531 58.2188 633.469 59.0312 633.469 59.5312C633.344 60 633.25 60.3438 633.188 60.5938C633.062 61.4062 633 61.8438 633 61.875C631.688 64.4688 630.125 65.9062 628.375 66.1875C627.406 66.3125 626.688 66.4375 626.25 66.5C624.406 66.8438 622.75 66.9688 621.312 66.875C620.875 66.875 620.25 66.7812 619.406 66.5938C618.562 66.4062 618.062 66.3125 617.875 66.3125C617.688 66.3125 617.406 66.375 617.031 66.4375C616.656 66.5312 616.406 66.5625 616.25 66.5312C615.969 66.0625 615.781 65.6875 615.688 65.4062C614.438 64.5312 613.5 63.9062 612.844 63.4688C612.188 62.9688 611.562 62.0312 610.938 60.6875C610.312 59.8125 609.844 59.125 609.469 58.6875C609.312 58.1875 609.219 57.8125 609.156 57.5C608.906 57.0625 608.688 56.7188 608.531 56.4688C608.406 55.5312 608.344 54.8125 608.344 54.3438C608.062 52.4062 607.938 51.1875 608 50.6875C608 50.625 607.969 50.5 607.906 50.3438C607.844 50.2188 607.812 50.125 607.812 50.0938C607.75 49.6875 607.812 48.7188 607.938 47.1562C607.969 46.5625 608.031 46.3125 608.062 46.4375C608.031 46.2812 608.031 46.125 608.031 45.9062C608.031 44.5938 608.562 42.8438 609.625 40.6875C610.375 39.2188 610.844 38.375 611.094 38.125C612.656 36.5312 614.312 35.4375 616.125 34.875C617.688 34.4688 618.844 34.1875 619.656 34H624.719C624.531 34 624.906 34.125 625.875 34.3438C627.375 34.6562 628.781 35.2812 630.125 36.1562C630.594 36.5 631.062 36.9688 631.531 37.5938C631.531 37.6562 631.875 38.1562 632.531 39.1562C632.656 39.6562 632.719 40.0625 632.719 40.3438C632.844 40.7812 632.938 41.0312 632.938 41.0312C632.938 41.6562 632.844 42.3125 632.688 42.9375C632.938 43.1875 633.281 43.25 633.719 43.125C634.125 43.0625 634.438 42.875 634.625 42.5938C634.656 42.4062 634.625 42.1562 634.562 41.8125C634.469 41.4688 634.438 41.2188 634.438 41.0625C634.438 40.75 634.562 40.4688 634.844 40.2188C634.719 39.625 634.656 38.9688 634.656 38.2812C634.656 37.5312 634.75 36.5 634.938 35.1562C635.156 33.4688 635.281 32.3125 635.344 31.6875ZM608.062 46.4375C608.062 46.4375 608.062 46.4375 608.094 46.4375C608.062 46.4375 608.062 46.4375 608.062 46.4375ZM680.562 31.375C678.75 31.125 677.406 30.9062 676.469 30.75C675.531 30.7188 674.188 30.7188 672.438 30.7812C671.25 30.8438 670.406 30.8438 669.844 30.8438H665.188C664.969 30.8438 664.656 31.0625 664.281 31.4688C667.156 33.0312 668.719 34.8125 668.906 36.875C668.906 37 668.969 37.8125 669.156 39.3125C669.281 40.625 669.344 41.2812 669.344 41.2812C669.344 41.5312 669.438 42.25 669.656 43.5C669.656 43.625 669.5 44.5 669.219 46.0938C669.125 46.5312 669.188 46.7812 669.375 46.8438C669.25 46.8125 669 46.8438 668.688 46.9062C668.562 46.9375 668.375 47.0938 668.125 47.3438C668 47.4688 667.562 47.5312 666.812 47.5938C665.562 47.7188 664.906 47.7812 664.875 47.8125H652.469C651.844 47.8125 651 47.5 649.969 46.8438C649.938 46.8438 649.906 46.7188 649.875 46.5C649.844 46.3438 649.812 46.2188 649.781 46.0938V39.7188C649.781 37.2188 650.094 35.5 650.781 34.5625C651.188 34 651.844 33.4688 652.75 32.9688C653.469 32.5938 654.188 32.25 654.938 31.875C653.875 31.0625 653.156 30.6562 652.75 30.6562C652.625 30.6562 652.438 30.6875 652.156 30.75C651.844 30.8125 651.562 30.8438 651.312 30.8438H645.375C645.312 30.8438 644.531 30.9062 643.031 31.0312C641.438 31.1562 640.281 31.25 639.531 31.25C639.094 31.9375 638.844 32.2812 638.844 32.3125C639.75 32.625 640.688 33.2188 641.625 34.1562C642.562 35.0938 643.031 35.9062 643.031 36.5625V41.5938C643.031 41.6875 643.062 42.0625 643.156 42.6875C643.25 43.3438 643.281 43.8438 643.281 44.1562C643.188 45.625 643.125 46.3438 643.062 46.2812C643.406 47.125 643.688 47.7188 643.938 48.0625C643.938 48.375 643.875 48.7812 643.688 49.25C643.469 49.8125 643.344 50.1562 643.344 50.25C643.094 51.4375 643 53.8125 643.062 57.4062C643.312 57.8438 643.438 58.0938 643.438 58.0938C643.438 60.9688 643.406 62.6562 643.375 63.1562C643.219 65.0625 642.938 66.3438 642.5 67.0312C641.906 67.9375 641.062 68.625 639.969 69.0625C639.031 69.4375 638.531 69.8125 638.531 70.1875L650.844 70.375C651.281 70.4062 651.531 70.4375 651.625 70.4688C651.719 70.5312 652.031 70.5625 652.531 70.5625C653.406 70.5625 654.219 70.1875 654.938 69.4062C654.125 69.0938 653.656 68.9375 653.594 68.9062C651.406 68.375 650.219 66.4688 650.062 63.1562C649.875 60 649.812 58.375 649.844 58.25C650.031 57.3125 650.094 56.75 650.062 56.5312C649.844 55.875 649.656 55.375 649.5 55C649.375 54.0938 649.5 53.375 649.812 52.875C650 52.5 650.219 52.0938 650.406 51.6875L659.531 51.375C659.562 51.375 660.156 51.4688 661.25 51.6562C662.031 51.7812 662.969 51.75 664.062 51.5312C665 51.3438 666.75 51.4062 669.312 51.6562C669.312 51.7188 669.281 51.9062 669.219 52.2812C669.094 52.8438 669.094 53.6875 669.219 54.8438C669.344 56.4688 669.438 57.3438 669.438 57.4062V61.9688C669.438 62.7812 669.188 63.875 668.719 65.25C668.156 66.875 667.531 67.8125 666.906 68.125C666.031 68.5625 665.375 68.875 664.938 69.0625C664.938 69.1875 664.969 69.375 665.031 69.625C665.094 69.875 665.125 70.0625 665.125 70.1875H679.719C680.031 69.7812 680.281 69.4688 680.406 69.25C679.906 69.2188 679.281 69 678.594 68.625C677.875 68.25 677.406 67.9062 677.219 67.5312C676.094 65.6562 675.562 62.4062 675.562 57.75V53.125L675.75 50.6875C675.875 48.9375 675.969 47.4375 675.969 46.1875C675.969 45.1562 675.906 44.3125 675.844 43.6562C675.562 41.5312 675.438 40.4688 675.438 40.4375C675.438 40.1562 675.594 39.4688 675.969 38.3438C675.938 38.2188 675.938 37.4688 675.938 36.0312C675.938 35.6562 676.156 35.125 676.656 34.375C677.156 33.6562 677.562 33.1875 677.938 32.9375C678.562 32.5625 679.312 32.25 680.188 32C680.438 31.8125 680.562 31.625 680.562 31.375ZM643.062 46.2812C643.062 46.2812 643.062 46.25 643.062 46.2188C643.062 46.25 643.062 46.2812 643.062 46.2812ZM675.969 38.3438C675.969 38.3125 675.969 38.2812 676 38.25C675.969 38.375 675.969 38.4062 675.969 38.3438Z" fill="#FFFEFD"/>
</svg>
